…
example.results <- gender(  first.names )

# when first installing, you will be asked to build a local database of names
# > gen <- gender( fn, method="ssa" )
# Install the genderdata package? 
# 
# 1: Yes
# 2: No
# Selection:  <- TYPE "Yes"

print( example.results, n=10 )
```

```
## # A tibble: 24 x 6
##       name proportion_male proportion_female gender year_min year_max
##      <chr>           <dbl>             <dbl>  <chr>    <dbl>    <dbl>
##  1    alan          0.9968            0.0032   male     1932     2012
##  2 allison          0.0082            0.9918 female     1932     2012
##  3   betty          0.0039            0.9961 female     1932     2012
##  4 beverly          0.0070            0.9930 female     1932     2012
##  5      bo          0.9348            0.0652   male     1932     2012
##  6    cara          0.0012            0.9988 female     1932     2012
##  7   chuck          0.9997            0.0003   male     1932     2012
##  8    dave          0.9985            0.0015   male     1932     2012
##  9    glen          0.9918            0.0082   male     1932     2012
## 10   henry          0.9935            0.0065   male     1932     2012
## # ... with 14 more rows
```
…
